{
    "name": "python3-numpy",
    "buildsystem": "simple",
    "build-commands": [
        "python3 -W ignore::UserWarning:distutils.dist setup.py build -j 0",
        "python3 setup.py install --prefix=/app --root=/ --optimize=1"
    ],
    "build-options": {
        "env": {
            "ATLAS": "None",
            "BLAS": "/app/lib",
            "LAPACK": "/app/lib"
        }
    },
    "cleanup": [ "/bin" ],
    "sources": [
        {
            "type": "archive",
            "url": "https://pypi.python.org/packages/0b/66/86185402ee2d55865c675c06a5cfef742e39f4635a4ce1b1aefd20711c13/numpy-1.14.2.zip",
            "sha256": "facc6f925c3099ac01a1f03758100772560a0b020fb9d70f210404be08006bcb"
        }
    ]
}
